
graph gil {
1 -- 11;
1 -- 18;
1 -- 22;
1 -- 27;
1 -- 29;
2 -- 3;
2 -- 10;
2 -- 16;
2 -- 21;
2 -- 24;
2 -- 30;
3 -- 4;
3 -- 24;
4 -- 17;
4 -- 25;
5 -- 8;
5 -- 10;
5 -- 12;
5 -- 14;
5 -- 16;
5 -- 20;
5 -- 26;
6 -- 12;
6 -- 17;
6 -- 20;
6 -- 23;
7 -- 13;
7 -- 15;
7 -- 27;
7 -- 29;
8 -- 9;
8 -- 10;
8 -- 12;
8 -- 19;
8 -- 26;
9 -- 10;
9 -- 19;
9 -- 21;
9 -- 24;
9 -- 26;
9 -- 30;
10 -- 11;
10 -- 14;
10 -- 16;
10 -- 19;
10 -- 21;
10 -- 26;
10 -- 30;
11 -- 12;
11 -- 14;
11 -- 18;
11 -- 22;
11 -- 27;
11 -- 29;
12 -- 13;
12 -- 23;
12 -- 28;
13 -- 14;
13 -- 15;
13 -- 27;
14 -- 15;
14 -- 16;
14 -- 18;
14 -- 20;
14 -- 22;
14 -- 26;
14 -- 29;
15 -- 16;
15 -- 27;
16 -- 17;
16 -- 21;
16 -- 22;
16 -- 26;
16 -- 30;
17 -- 18;
17 -- 20;
17 -- 23;
17 -- 25;
18 -- 19;
18 -- 20;
18 -- 22;
18 -- 27;
18 -- 29;
19 -- 20;
19 -- 21;
19 -- 26;
19 -- 30;
20 -- 21;
20 -- 22;
20 -- 23;
21 -- 22;
21 -- 24;
21 -- 26;
21 -- 30;
22 -- 23;
22 -- 29;
23 -- 24;
24 -- 25;
24 -- 30;
25 -- 26;
26 -- 27;
26 -- 30;
27 -- 28;
27 -- 29;
28 -- 29;
29 -- 30;


}
